\relax 
\providecommand\hyper@newdestlabel[2]{}
\providecommand\HyperFirstAtBeginDocument{\AtBeginDocument}
\HyperFirstAtBeginDocument{\ifx\hyper@anchor\@undefined
\global\let\oldcontentsline\contentsline
\gdef\contentsline#1#2#3#4{\oldcontentsline{#1}{#2}{#3}}
\global\let\oldnewlabel\newlabel
\gdef\newlabel#1#2{\newlabelxx{#1}#2}
\gdef\newlabelxx#1#2#3#4#5#6{\oldnewlabel{#1}{{#2}{#3}}}
\AtEndDocument{\ifx\hyper@anchor\@undefined
\let\contentsline\oldcontentsline
\let\newlabel\oldnewlabel
\fi}
\fi}
\global\let\hyper@last\relax 
\gdef\HyperFirstAtBeginDocument#1{#1}
\providecommand\HyField@AuxAddToFields[1]{}
\providecommand\HyField@AuxAddToCoFields[2]{}
\@writefile{toc}{\contentsline {part}{I\hspace  {1em}Revision History}{2}{part.1}}
\@writefile{lot}{\contentsline {table}{\numberline {1}{\ignorespaces Revision History\relax }}{2}{table.caption.4}}
\@writefile{toc}{\contentsline {section}{\numberline {1}Purpose}{3}{section.1}}
\@writefile{toc}{\contentsline {section}{\numberline {2}Validation}{3}{section.2}}
\@writefile{toc}{\contentsline {subsection}{\numberline {2.1}Relationship Between Isolated Tests and Requirements}{3}{subsection.2.1}}
\@writefile{toc}{\contentsline {subsection}{\numberline {2.2}Tracing isolated tests to design decisions and requirements}{3}{subsection.2.2}}
\@writefile{toc}{\contentsline {subsection}{\numberline {2.3}Integrated testing approach}{3}{subsection.2.3}}
\@writefile{toc}{\contentsline {section}{\numberline {3}Verification}{3}{section.3}}
\@writefile{toc}{\contentsline {subsection}{\numberline {3.1}Isolated Testing}{3}{subsection.3.1}}
\@writefile{toc}{\contentsline {subsubsection}{\numberline {3.1.1}Web Service}{3}{subsubsection.3.1.1}}
\gdef \LT@i {\LT@entry 
    {1}{68.9055pt}\LT@entry 
    {1}{125.81102pt}\LT@entry 
    {1}{182.71652pt}\LT@entry 
    {1}{154.26378pt}\LT@entry 
    {1}{154.26378pt}\LT@entry 
    {1}{68.9055pt}}
\@writefile{lot}{\contentsline {table}{\numberline {2}{\ignorespaces Web Service Test Cases}}{6}{table.2}}
\@writefile{toc}{\contentsline {subsubsection}{\numberline {3.1.2}Android Application Testing}{7}{subsubsection.3.1.2}}
\gdef \LT@ii {\LT@entry 
    {1}{68.9055pt}\LT@entry 
    {1}{125.81102pt}\LT@entry 
    {1}{182.71652pt}\LT@entry 
    {1}{154.26378pt}\LT@entry 
    {1}{154.26378pt}\LT@entry 
    {1}{68.9055pt}}
\@writefile{lot}{\contentsline {table}{\numberline {3}{\ignorespaces Android Application Test Cases}}{8}{table.3}}
\gdef \LT@iii {\LT@entry 
    {1}{68.9055pt}\LT@entry 
    {1}{125.81102pt}\LT@entry 
    {1}{182.71652pt}\LT@entry 
    {1}{154.26378pt}\LT@entry 
    {1}{154.26378pt}\LT@entry 
    {1}{68.9055pt}}
\@writefile{toc}{\contentsline {subsubsection}{\numberline {3.1.3}Hardware Testing}{9}{subsubsection.3.1.3}}
\@writefile{lot}{\contentsline {table}{\numberline {4}{\ignorespaces Arduino Test cases}}{9}{table.4}}
\@writefile{toc}{\contentsline {subsection}{\numberline {3.2}Integrated Testing}{10}{subsection.3.2}}
\gdef \LT@iv {\LT@entry 
    {1}{68.9055pt}\LT@entry 
    {1}{125.81102pt}\LT@entry 
    {1}{182.71652pt}\LT@entry 
    {1}{154.26378pt}\LT@entry 
    {1}{154.26378pt}\LT@entry 
    {1}{68.9055pt}}
\@writefile{lot}{\contentsline {table}{\numberline {5}{\ignorespaces Integrated System Test Cases}}{11}{table.5}}
