\relax 
\providecommand\hyper@newdestlabel[2]{}
\providecommand\HyperFirstAtBeginDocument{\AtBeginDocument}
\HyperFirstAtBeginDocument{\ifx\hyper@anchor\@undefined
\global\let\oldcontentsline\contentsline
\gdef\contentsline#1#2#3#4{\oldcontentsline{#1}{#2}{#3}}
\global\let\oldnewlabel\newlabel
\gdef\newlabel#1#2{\newlabelxx{#1}#2}
\gdef\newlabelxx#1#2#3#4#5#6{\oldnewlabel{#1}{{#2}{#3}}}
\AtEndDocument{\ifx\hyper@anchor\@undefined
\let\contentsline\oldcontentsline
\let\newlabel\oldnewlabel
\fi}
\fi}
\global\let\hyper@last\relax 
\gdef\HyperFirstAtBeginDocument#1{#1}
\providecommand\HyField@AuxAddToFields[1]{}
\providecommand\HyField@AuxAddToCoFields[2]{}
\@writefile{toc}{\contentsline {section}{\numberline {1}Revision History}{2}{section.1}}
\@writefile{lot}{\contentsline {table}{\numberline {1}{\ignorespaces Revision History\relax }}{2}{table.caption.4}}
\@writefile{toc}{\contentsline {section}{\numberline {2}Introduction}{2}{section.2}}
\@writefile{toc}{\contentsline {subsection}{\numberline {2.1}Purpose}{2}{subsection.2.1}}
\@writefile{toc}{\contentsline {subsection}{\numberline {2.2}Scope}{2}{subsection.2.2}}
\@writefile{toc}{\contentsline {subsection}{\numberline {2.3}Assumptions}{2}{subsection.2.3}}
\@writefile{toc}{\contentsline {subsection}{\numberline {2.4}System Boundaries}{2}{subsection.2.4}}
\@writefile{toc}{\contentsline {subsection}{\numberline {2.5}System Schematic}{2}{subsection.2.5}}
\@writefile{toc}{\contentsline {subsection}{\numberline {2.6}Functional Decomposition}{2}{subsection.2.6}}
\@writefile{toc}{\contentsline {subsubsection}{\numberline {2.6.1}Lock}{2}{subsubsection.2.6.1}}
\@writefile{toc}{\contentsline {subsubsection}{\numberline {2.6.2}Unlock}{2}{subsubsection.2.6.2}}
\@writefile{lof}{\contentsline {figure}{\numberline {1}{\ignorespaces System Schematic\relax }}{3}{figure.caption.5}}
\@writefile{toc}{\contentsline {subsubsection}{\numberline {2.6.3}Authorize user}{3}{subsubsection.2.6.3}}
\@writefile{toc}{\contentsline {subsubsection}{\numberline {2.6.4}Revoke user}{3}{subsubsection.2.6.4}}
\@writefile{toc}{\contentsline {subsubsection}{\numberline {2.6.5}Authorize guest}{3}{subsubsection.2.6.5}}
\@writefile{toc}{\contentsline {subsubsection}{\numberline {2.6.6}Revoke guest}{3}{subsubsection.2.6.6}}
\@writefile{toc}{\contentsline {subsubsection}{\numberline {2.6.7}Log in}{3}{subsubsection.2.6.7}}
\@writefile{toc}{\contentsline {subsubsection}{\numberline {2.6.8}Register}{3}{subsubsection.2.6.8}}
\@writefile{toc}{\contentsline {subsubsection}{\numberline {2.6.9}Add lock}{3}{subsubsection.2.6.9}}
\@writefile{toc}{\contentsline {subsubsection}{\numberline {2.6.10}Delete lock}{4}{subsubsection.2.6.10}}
\@writefile{toc}{\contentsline {section}{\numberline {3}FMEA Chart}{5}{section.3}}
\gdef \LT@i {\LT@entry 
    {1}{69.70549pt}\LT@entry 
    {1}{97.75826pt}\LT@entry 
    {1}{97.75826pt}\LT@entry 
    {1}{69.3055pt}\LT@entry 
    {1}{126.21101pt}\LT@entry 
    {1}{55.07912pt}\LT@entry 
    {1}{97.75826pt}\LT@entry 
    {1}{126.21101pt}}
\@writefile{lot}{\contentsline {table}{\numberline {2}{\ignorespaces FMEA Chart}}{10}{table.2}}
\citation{*}
